10 10  0  0  0  0  0  0  0  0  0  0  0
10 10  0  0  0  0  0  0  0  0  0 101 0
10 10  12 0  0  0 101 0  0  0  0  0  0
10 10  0 56  0  0  0  0  0  0  0  0  0
10 10  0  2  0  0 101 0  0  0 55  0  0
10 10  0 56  0  0  0  0  0  0  0  0  0
10 10  12 0  0  0 101 0  0  0  0  0  0
10 10  0  0  0  0  0  0  0  0  0 101 0
10 10  0  0  0  0  0  0  0  0  0  0  0