10 10 10 56  0  0  0  0  0 56 10 10 10
10 56 56  0  0  0  0  0  0  0 56 56 10
10 56  0 12  0  0  0  0  0 12  0 56 10
56  0  0  0  0  0  0  0  0  0  0  0 56
 0  0  0  0  0  0 153 0  0  0  0  0  0
56  0  0  0  0  0  0  0  0  0  0  0 56
10 56  0 100 0  0  0  0  0 100 0 56 10
10 56 56  0  0  0  0  0  0  0 56 56 10
10 10 10 56  0  0  0  0  0 56 10 10 10